%YAML 1.1
%TAG !u! tag:unity3d.com,2011:
--- !u!1045 &1
EditorBuildSettings:
  m_ObjectHideFlags: 0
  serializedVersion: 2
  m_Scenes:
  - enabled: 0
    path: 
    guid: 00000000000000000000000000000000
  - enabled: 1
    path: Assets/Scenes/MainMenu.unity
    guid: fb5112d5cd815b84ea85d0fb175a81c9
  - enabled: 1
    path: Assets/Scenes/Game.unity
    guid: bd33553c1543ad542b086c23c6d62fc2
  - enabled: 1
    path: Assets/Scenes/Credits.unity
    guid: b860b5844d7956d45871c78e7013c711
  m_configObjects: {}
